Chapter	Starting Verse	Pericope	Content Genre	Moral Focus	Themes
1	1	The Genealogy of Christ	Genealogy		
	18	The Birth of Jesus	Narrative		
2	1	The Visit of the Wise Men	Narrative		
	13	The Flight to Egypt	Narrative		
	16	Herod Kills the Children	Narrative		
	19	The Return to Nazareth	Narrative		
3	1	John the Baptist Prepares the Way	Narrative		
	13	The Baptism of Jesus	Narrative		
4	1	The Temptation of Jesus	Narrative		
	12	Jesus Begins His Ministry	Narrative		
	18	Jesus Calls the First Disciples	Narrative		
	23	Jesus Ministers to Great Crowds	Narrative		
					
5	1	The Sermon on the Mount	Narrative		
	2	The Beatitudes	Teaching	"Yeshua's teachings, Love: toward God"	Characteristics of Kingdom Citizenship
	13	Salt and Light	Teaching	Yeshua's teachings	Characteristics of Kingdom Citizenship
	17	Christ Came to Fulfill the Law	Teaching	Yeshua's teachings	The Antitheses
	21	Anger	Teaching	Yeshua's teachings	The Antitheses
	27	Lust	Teaching	Yeshua's teachings	The Antitheses
	31	Divorce	Teaching	Yeshua's teachings	The Antitheses
	33	Oaths	Teaching	Yeshua's teachings	The Antitheses
	38	Retaliation	Teaching	Yeshua's teachings	The Antitheses
	43	Love Your Enemies	Teaching	"Yeshua's teachings, Love: toward neighbors"	The Antitheses
6	1	Giving to the Needy	Teaching	Yeshua's teachings	How to Advance the Kingdom
	5	The Lord's Prayer	Teaching	Yeshua's teachings	How to Advance the Kingdom
	6	Fasting	Teaching	Yeshua's teachings	How to Advance the Kingdom
	18	Lay Up Treasures in Heaven	Teaching	Yeshua's teachings	How to Advance the Kingdom
	25	Do Not Be Anxious	Teaching	Yeshua's teachings	How to Advance the Kingdom
7	1	Judging Others	Teaching	Yeshua's teachings	How to Advance the Kingdom
	7	"Ask, and It Will Be Given"	Teaching	Yeshua's teachings	How to Advance the Kingdom
	12	The Golden Rule	Teaching	"Yeshua's teachings, Love: toward neighbors"	How to Advance the Kingdom
	15	A Tree and Its Fruit	Teaching	Yeshua's teachings	The Danger of Rejecting Citizenship
	21	I Never Knew You	Teaching	Yeshua's teachings	The Danger of Rejecting Citizenship
	24	Build Your House on the Rock	Teaching	Yeshua's teachings	The Danger of Rejecting Citizenship
	28	The Authority of Jesus	Teaching	Yeshua's teachings	The Danger of Rejecting Citizenship
					
8	1	Jesus Cleanses a Leper	Narrative		
	5	The Faith of a Centurion	Narrative		
	14	Jesus Heals Many	Narrative		
	18	The Cost of Following Jesus	"Narrative, Teaching"	Yeshua's teachings	Yeshua's Ultimate Value & Authority
	23	Jesus Calms a Storm	Narrative		
	28	Jesus Heals Two Men with Demons	Narrative		
9	1	Jesus Heals a Paralytic	Narrative		
	9	Jesus Calls Matthew	Narrative		
	14	A Question About Fasting	"Narrative, Teaching"	Yeshua's teachings	Yeshua's Authority over the Covenants
	18	A Girl Restored to Life and a Woman Healed	Narrative		
	27	Jesus Heals Two Blind Men	Narrative		
	32	Jesus Heals a Man Unable to Speak	Narrative		
	35	"The Harvest Is Plentiful, the Laborers Few"	Narrative		
10	1	The Twelve Apostles	Narrative		
	5	Jesus Sends Out the Twelve Apostles	Narrative		
	16	Persecution Will Come	Teaching		
	26	Have No Fear	Teaching		
	34	"Not Peace, but a Sword"	Teaching		
	40	Rewards	Teaching		
11	1	Messengers from John the Baptist	"Narrative, Teaching"		
	20	Woe to Unrepentant Cities	Teaching		
	25	"Come to Me, and I Will Give You Rest"	Teaching		
12	1	Jesus Is Lord of the Sabbath	"Narrative, Teaching"		
	9	A Man with a Withered Hand	"Narrative, Teaching"		
	15	God's Chosen Servant	Commentary		
	22	Blasphemy Against the Holy Spirit	"Narrative, Teaching"		
	33	A Tree Is Known by Its Fruit	Teaching		
	38	The Sign of Jonah	Teaching		
	43	Return of an Unclean Spirit	Teaching		
	46	Jesus's Mother and Brothers	"Narrative, Teaching"		
13	1	The Parable of the Sower	Teaching		
	10	The Purpose of the Parables	Teaching		
	18	The Parable of the Sower Explained	Teaching		
	24	The Parable of the Weeds	Teaching		
	31	The Mustard Seed and the Leaven	Teaching		
	34	Prophecy and Parables	Teaching		
	36	The Parable of the Weeds Explained	Teaching		
	44	The Parable of the Hidden Treasure	Teaching		
	45	The Parable of the Pearl of Great Value	Teaching		
	47	The Parable of the Net	Teaching		
	51	New and Old Treasures	Teaching		
	53	Jesus Rejected at Nazareth	Narrative		
14	1	The Death of John the Baptist	Narrative		
	13	Jesus Feeds the Five Thousand	Narrative		
	22	Jesus Walks on the Water	Narrative		
	34	Jesus Heals the Sick in Gennesaret	Narrative		
15	1	Traditions and Commandments	"Narrative, Teaching"		
	10	What Defiles a Person	"Narrative, Teaching"		
	21	The Faith of a Canaanite Woman	Narrative		
	29	Jesus Heals Many	Narrative		
	32	Jesus Feeds the Four Thousand	Narrative		
16	1	The Pharisees and Sadducees Demand Signs	Narrative		
	5	The Leaven of the Pharisees and Sadducees	"Narrative, Teaching"		
	13	Peter Confesses Jesus as the Christ	Narrative		
	21	Jesus Foretells His Death and Resurrection	Narrative		
	24	Take Up Your Cross and Follow Jesus	Teaching		
17	1	The Transfiguration	Narrative		
	14	Jesus Heals a Boy with a Demon	Narrative		
	22	"Jesus Again Foretells Death, Resurrection"	Narrative		
	24	The Temple Tax	"Narrative, Teaching"		
18	1	Who Is the Greatest?	"Narrative, Teaching"		
	7	Temptations to Sin	Teaching		
	10	The Parable of the Lost Sheep	Teaching		
	15	If Your Brother Sins Against You	Teaching		
	21	The Parable of the Unforgiving Servant	Teaching		
19	1	Teaching About Divorce	Teaching		
	13	Let the Children Come to Me	"Narrative, Teaching"		
	16	The Rich Young Man	"Narrative, Teaching"		
20	1	Laborers in the Vineyard	Teaching		
	17	Jesus Foretells His Death a Third Time	Narrative		
	20	 A Mother's Request	"Narrative, Teaching"		
	29	Jesus Heals Two Blind Men	Narrative		
21	1	The Triumphal Entry	Narrative		
	12	Jesus Cleanses the Temple	Narrative		
	18	Jesus Curses the Fig Tree	"Narrative, Teaching"		
	23	The Authority of Jesus Challenged	Narrative		
	28	The Parable of the Two Sons	Teaching		
	33	The Parable of the Tenants	Teaching		
22	1	The Parable of the Wedding Feast	Teaching		
	15	Paying Taxes to Caesar	Narrative		
	23	Sadducees Ask About the Resurrection	Narrative		
	34	The Great Commandment	"Narrative, Teaching"		
	41	Whose Son Is the Christ?	"Narrative, Teaching"		
23	1	Seven Woes to the Scribes and Pharisees	Narrative		
	37	Lament over Jerusalem	Narrative		
24	1	Jesus Foretells the Destruction of the Temple	Narrative		
	3	Signs of the End of the Age	Doctrine		
	15	The Abomination of Desolation	Doctrine		
	29	The Coming of the Son of Man	Doctrine		
	32	The Lesson of the Fig Tree	Doctrine		
	36	 No One Knows That Day and Hour	Doctrine		
25	1	The Parable of the Ten Virgins	Teaching		
	14	The Parable of the Talents	Teaching		
	31	The Final Judgment	"Doctrine, Teaching"		
26	1	The Plot to Kill Jesus	Narrative		
	6	Jesus Anointed at Bethany	Narrative		
	14	Judas to Betray Jesus	Narrative		
	17	The Passover with the Disciples	Narrative		
	26	Institution of the Lord's Supper	Narrative		
	30	Jesus Foretells Peter's Denial	Narrative		
	36	Jesus Prays in Gethsemane	Narrative		
	47	Betrayal and Arrest of Jesus	Narrative		
	57	Jesus Before Caiaphas and the Council	Narrative		
	69	Peter Denies Jesus	Narrative		
27	1	Jesus Delivered to Pilate	Narrative		
	3	Judas Hangs Himself	Narrative		
	11	Jesus Before Pilate	Narrative		
	15	The Crowd Chooses Barabbas	Narrative		
	24	Pilate Delivers Jesus to Be Crucified	Narrative		
	27	Jesus Is Mocked	Narrative		
	32	The Crucifixion	Narrative		
	45	The Death of Jesus	Narrative		
	57	Jesus Is Buried	Narrative		
	62	The Guard at the Tomb	Narrative		
28	1	The Resurrection	Narrative		
	11	The Report of the Guard	Narrative		
	16	The Great Commission	Narrative		
