<svg xmlns="http://www.w3.org/2000/svg" xmlns:xlink="http://www.w3.org/1999/xlink" preserveAspectRatio="xMidYMid" width="45" height="45" viewBox="0 0 45 45">
  <defs>
    <style>
      .cls-1 {
        fill: #000;
      }

      .cls-2 {
        fill: #fff;
        fill-rule: evenodd;
      }
    </style>
  </defs>
  <g>
    <circle cx="22.5" cy="22.5" r="22.5" class="cls-1"/>
    <path d="M26.753,11.636 C26.418,11.586 25.262,11.487 23.919,11.487 C21.110,11.487 19.183,13.202 19.183,16.347 L19.183,19.057 L16.013,19.057 L16.013,22.737 L19.183,22.737 L19.183,32.172 L22.987,32.172 L22.987,22.737 L26.144,22.737 L26.629,19.057 L22.987,19.057 L22.987,16.708 C22.987,15.651 23.273,14.918 24.802,14.918 L26.753,14.918 L26.753,11.636 Z" class="cls-2"/>
  </g>
</svg>
