<svg xmlns="http://www.w3.org/2000/svg" width="145.5" height="16" viewBox="0 0 145.5 16">
  <defs>
    <style>
      .cls-1 {
        fill-rule: evenodd;
      }
    </style>
  </defs>
  <path class="cls-1" d="M225.283,102.5a7.738,7.738,0,0,1-7.783-7.959V94.5a8.137,8.137,0,0,1,13.9-5.615l-2.124,2.5a5.55,5.55,0,0,0-3.881-1.746,4.547,4.547,0,0,0-4.4,4.819V94.5c0,2.652,1.8,4.863,4.4,4.863a5.429,5.429,0,0,0,3.989-1.812l2.125,2.188A7.7,7.7,0,0,1,225.283,102.5Zm18.82-.266h-7.22V86.763h7.046c3.1,0,5.008,1.569,5.008,4v0.044a3.607,3.607,0,0,1-1.994,3.338c1.755,0.685,2.84,1.724,2.84,3.8v0.044C249.783,100.822,247.528,102.237,244.1,102.237Zm1.517-10.9c0-1.017-.781-1.592-2.19-1.592h-3.3v3.272h3.078c1.475,0,2.407-.487,2.407-1.636V91.339Zm0.845,6.19c0-1.039-.759-1.68-2.471-1.68h-3.859v3.4H244.1c1.474,0,2.362-.531,2.362-1.68V97.529Zm20.641,4.708v-10.1l-4.271,6.61h-0.086L258.52,92.2v10.036h-3.273V86.763h3.6l3.989,6.544,3.989-6.544h3.6v15.474h-3.317Zm26.343,0.111h-2.906l-3.425-10.125-3.426,10.125h-2.905l-5.182-15.585h3.578l3.144,10.479,3.4-10.524h2.862L292,97.242l3.145-10.479h3.49Zm7.717-.111V98.7h3.513v3.536h-3.513Zm15.89,0.266a7.849,7.849,0,0,1-8.043-7.959V94.5a8.065,8.065,0,0,1,16.13-.044V94.5A7.923,7.923,0,0,1,317.056,102.5Zm4.6-8a4.661,4.661,0,0,0-4.6-4.863,4.587,4.587,0,0,0-4.552,4.819V94.5a4.661,4.661,0,0,0,4.6,4.863,4.589,4.589,0,0,0,4.553-4.819V94.5Zm18.385,7.737-3.252-4.951h-2.623v4.951h-3.338V86.763h6.937c3.577,0,5.723,1.922,5.723,5.107v0.044a4.8,4.8,0,0,1-3.252,4.8l3.708,5.526h-3.9ZM340.1,92.046c0-1.459-1-2.211-2.623-2.211h-3.317v4.444h3.382c1.626,0,2.558-.884,2.558-2.189V92.046ZM356.517,102.5a7.67,7.67,0,0,1-7.979-7.959V94.5a7.866,7.866,0,0,1,7.957-8,8.235,8.235,0,0,1,5.962,2.122l-2.1,2.586a5.53,5.53,0,0,0-3.968-1.569,4.611,4.611,0,0,0-4.357,4.819V94.5a4.6,4.6,0,0,0,4.6,4.907,5.253,5.253,0,0,0,3.144-.928V96.269h-3.36v-2.94H363v6.72A9.744,9.744,0,0,1,356.517,102.5Z" transform="translate(-217.5 -86.5)"/>
</svg>
