
		MON			TUE			WED			THU			
		
06	
	
	
07	
	
	
08	
	
	
09	
	
	
10	
		Discrt Str				Discrt Str
		.                       .
11  	.                       .
		.                       .
		.                       .
12		Theology I				Theology I
		.                       .
		.                       .
13		.                       .
		Systems		New Testmt	Systems		New Testmt
		.			.           .			.
14  	.           .           .           .
		.           .           .           .
		.           .           .           .
15					Comp Org				Comp Org
					.                       .
					.                       .
16  	            .                       .
	
	
17	
	
	
18	